0020
 
-
 ReferenceCode | LastName | FirstName | UserName 
 ST1015 | Mccray | Kandra | kandra.mccray@tcschools.com 
 ST105675 | Carr | Lynell | lynell.carr@tcschools.com 
 ST105751 | Manning | Mary Ellen | mary.manning@tcschools.com 
 ST105753 | Willis | Jodie | jodie.willis@tcschools.com 
 ST105755 | Johnson | Pamela | pam.johnson@tcschools.com 
 ST105756 | Riddle | Connie | connie.riddle@tcschools.com 
 ST105757 | Baker | Christina | christina.baker@tcschools.com 
 ST105758 | Nightengale | Alberta | alberta.nightengale@tcschools.com 
 ST105759 | Cunningham | Jerry | jerry.cunningham@tcschools.com 
 ST105762 | McNaughton | Keith | keith.mcnaughton@tcschools.com 
 ST105763 | Golden | Toni | toni.golden@tcschools.com 
 ST105764 | Bentley | Lorene |  
 ST105766 | Mask | John | john.mask@tcschools.com 
 ST105769 | Glasscock | Robert | robert.glasscock@tcschools.com 
 ST105770 | Levett | Mary |  
 ST105771 | Miller | Jennifer | jennifer.miller@tcschools.com 
 ST105772 | Robinson | Edwetta | edwetta.robinson@tcschools.com 
 ST105773 | Davis | Daphne | daphne.davis@tcschools.com 
 ST105774 | Jackson | Felicia | felicia.jackson@tcschools.com 
 ST105776 | Rogers | Debbie | debbi.rogers@tcschools.com 
 ST105778 | Crawford | Aimee | aimee.crawford@tcschools.com 
 ST105779 | Johnson | Diann | diannb.johnson@tcschools.com 
 ST105780 | Pate | Kelly | kelly.pate@tcschools.com 
 ST105782 | Paulk | Bosie |  
 ST105784 | Dubose | Shannon |  
 ST105785 | Powell | April | april.powell@tcschools.com 
 ST105786 | Davis | Catherine | catherine.davis@tcschools.com 
 ST105788 | Worley | Danny | danny.worley@tcschools.com 
 ST105790 | Davis | James | jim.davis 
 ST105791 | Stewart | Chet | chet.stewart@tcschools.com 
 ST105808 | Moxley | Adam | adam.moxley@tcschools.com 
 ST105810 | Moore | Leon |  
 ST105811 | Barron | Brooke | brooke.barron@tcschools.com 
 ST105814 | Wallace | Laura |  
 ST105816 | Clayton | Adam | adam.clayton@tcschools.com 
 ST105819 | Whaley | Patti |  
 ST1081 | Davis | Jim | jim.davis@tcschools.com 
 ST1085 | Hayley | Katherine | katherine.hayley@tcschools.com 
 ST1109 | Weaver | Woody | woody.weaver@tcschools.com 
 ST1131 | Sub | THS | ths.sub 
 ST1151 | Battles | Mike | mike.battles@tcschools.com 
 ST1153 | Coker | Matthew | matt.coker@tcschools.com 
 ST1156 | Horn | Julia | julia.horn@tcschools.com 
 ST1158 | Cook | Dustin | dustin.cook@tcschools.com 
 ST1210 | Santana | Katie | katie.santana@tcschools.com 
 ST1213 | Free | Daniel | daniel.free@tcschools.com 
 ST1216 | Suggs | Melissa | Melissa.Suggs@tcschools.com 
 ST1217 | Walker | Curtis | Curtis.Walker@tcschools.com 
 ST1218 | Weeks | Shelly | Shelly.Weeks@tcschools.com 
 ST1226 | Crain | Jennifer | jennifer.crain@tcschools.com 
 ST1232 | Dean | Ryan | ryan.dean@tcschools.com 
 ST1234 | Figueroa | Ma |  
 ST1235 | Norfleet | Fran | fran.norfleet@tcschools.com 
 ST1268 | Speake | Marilyn | marilyn.speake@tcschools.com 
 ST1276 | O'Rear | Kevin | kevin.o'rear@tcschools.com 
 ST1282 | Hornsby | Jennifer | jennifer.hornsby@tcschools.com 
 ST1284 | Hosemann | Mark | mark.hosemann@tcschools.com 
 ST1290 | Robbins | Donna |  
 ST1296 | Bice | Starla |  
 ST1298 | Hooks | Regina |  
 ST1302 | Day | Jessica | jessica.day@tcschools.com 
 ST1303 | Evans | Traci | traci.evans@tcschools.com 
 ST1304 | Hollinquest | Cecil | cecil.hollinquest@tcschools.com 
 ST1305 | Hughes | Sarah | sarah.hughes@tcschools.com 
 ST1306 | Smith | Todd | todd.smith@tcschools.com 
 ST1320 | Langford | Robert | robert.langford@tcschools.com 
 ST1321 | Green | William | william.green@tcschools.com 
 ST1322 | Shipman | Wade | wade.shipman 
 ST1327 | Browning | Clint | clint.browning@tcschools.com 
 ST1328 | Schmitt | Andrew | andrew.schmitt@tcschools.com 
