external_course_key|external_person_key|role|available_ind|data_source_key
CHE101002|9900000|student|Y|201206
CHE101001|9900001|student|Y|201206
CHE101001|9900002|student|Y|201206
CHE101001|9900004|instructor|Y|201206
CHE101002|9900003|student|Y|201206
CHE101002|9900004|instructor|Y|201206
BIO652001|9900001|student|Y|201206
BIO652001|9900003|student|Y|201206
BIO652001|9900004|instructor|Y|201206