external_course_key|external_person_key|role|available_ind|data_source_key
420009.003.2013|ST1213|instructor|Y|1415_Courses_tmp
230016aa.001.2013|ST105773|instructor|Y|1415_Courses_tmp
200009aa.004.2013|ST1218|instructor|Y|1415_Courses_tmp
400026.002.2013|ST105760|instructor|Y|1415_Courses_tmp
450006.002.2013|ST105760|instructor|Y|1415_Courses_tmp
400026.003.2013|ST105760|instructor|Y|1415_Courses_tmp
230051.002.2013|ST105766|instructor|Y|1415_Courses_tmp
210020aa.003.2013|ST1216|instructor|Y|1415_Courses_tmp
230041aa.001.2013|ST105766|instructor|Y|1415_Courses_tmp
700008.001.2013|ST105753|instructor|Y|1415_Courses_tmp
220028.003.2013|ST1151|instructor|Y|1415_Courses_tmp
802206ah.003.2013|ST1153|instructor|Y|1415_Courses_tmp
220081ab.004.2013|ST1217|instructor|Y|1415_Courses_tmp
230015aa.003.2013|ST1212|instructor|Y|1415_Courses_tmp
400026.005.2013|ST105762|instructor|Y|1415_Courses_tmp
280035aa.001.2013|ST105769|instructor|Y|1415_Courses_tmp
230053aa.001.2013|ST105766|instructor|Y|1415_Courses_tmp
220051aa.001.2013|ST105751|instructor|Y|1415_Courses_tmp
220051aa.005.2013|ST1217|instructor|Y|1415_Courses_tmp
200009aa.003.2013|ST1218|instructor|Y|1415_Courses_tmp
200007aa.003.2013|ST1175|instructor|Y|1415_Courses_tmp
280039.001.2013|ST105769|instructor|Y|1415_Courses_tmp
250002.006.2013|ST1158|instructor|Y|1415_Courses_tmp
250002.016.2013|ST1085|instructor|Y|1415_Courses_tmp
230013aa.001.2013|ST1212|instructor|Y|1415_Courses_tmp
802206ae.006.2013|ST105774|instructor|Y|1415_Courses_tmp
280055aa.001.2013|ST105808|instructor|Y|1415_Courses_tmp
250002.011.2013|ST1151|instructor|Y|1415_Courses_tmp
210015.002.2013|ST105778|instructor|Y|1415_Courses_tmp
470012.001.2013|ST105762|instructor|Y|1415_Courses_tmp
200013aa.002.2013|ST105780|instructor|Y|1415_Courses_tmp
230018aa.002.2013|ST105773|instructor|Y|1415_Courses_tmp
210008.004.2013|ST1214|instructor|Y|1415_Courses_tmp
250002.008.2013|ST105808|instructor|Y|1415_Courses_tmp
200016.001.2013|ST105785|instructor|Y|1415_Courses_tmp
210017aa.003.2013|ST105811|instructor|Y|1415_Courses_tmp
240003aj.008.2013|ST1085|instructor|Y|1415_Courses_tmp
210034.001.2013|ST1216|instructor|Y|1415_Courses_tmp
200017.001.2013|ST105785|instructor|Y|1415_Courses_tmp
210008.002.2013|ST1214|instructor|Y|1415_Courses_tmp
200005aa.004.2013|ST1175|instructor|Y|1415_Courses_tmp
230201.002.2013|ST105766|instructor|Y|1415_Courses_tmp
400026.006.2013|ST105762|instructor|Y|1415_Courses_tmp
400026.001.2013|ST105760|instructor|Y|1415_Courses_tmp
240003aa.005.2013|ST1085|instructor|Y|1415_Courses_tmp
220051aa.004.2013|ST1217|instructor|Y|1415_Courses_tmp
410008.001.2013|ST1213|instructor|Y|1415_Courses_tmp
240003aa.003.2013|ST1085|instructor|Y|1415_Courses_tmp
210015.001.2013|ST105778|instructor|Y|1415_Courses_tmp
802206ag.002.2013|ST105771|instructor|Y|1415_Courses_tmp
210025.001.2013|ST105811|instructor|Y|1415_Courses_tmp
230041aa.003.2013|ST105766|instructor|Y|1415_Courses_tmp
230051.001.2013|ST105766|instructor|Y|1415_Courses_tmp
430022.001.2013|ST105749|instructor|Y|1415_Courses_tmp
220013aa.002.2013|ST105758|instructor|Y|1415_Courses_tmp
210012ab.002.2013|ST105778|instructor|Y|1415_Courses_tmp
230013aa.004.2013|ST1212|instructor|Y|1415_Courses_tmp
250002.002.2013|ST105816|instructor|Y|1415_Courses_tmp
200011aa.001.2013|ST1218|instructor|Y|1415_Courses_tmp
230019aa.003.2013|ST105772|instructor|Y|1415_Courses_tmp
240003.001.2013|ST1158|instructor|Y|1415_Courses_tmp
250002.007.2013|ST105808|instructor|Y|1415_Courses_tmp
600206.004.2013|ST105788|instructor|Y|1415_Courses_tmp
200005aa.001.2013|ST1175|instructor|Y|1415_Courses_tmp
220051aa.002.2013|ST105751|instructor|Y|1415_Courses_tmp
220051aa.003.2013|ST105751|instructor|Y|1415_Courses_tmp
230022aa.003.2013|ST1151|instructor|Y|1415_Courses_tmp
230013aa.002.2013|ST1212|instructor|Y|1415_Courses_tmp
450006.001.2013|ST105760|instructor|Y|1415_Courses_tmp
200013aa.001.2013|ST105780|instructor|Y|1415_Courses_tmp
470012.002.2013|ST105762|instructor|Y|1415_Courses_tmp
600062aa.001.2013|ST105779|instructor|Y|1415_Courses_tmp
600206.001.2013|ST105788|instructor|Y|1415_Courses_tmp
802206ad.008.2013|ST105751|instructor|Y|1415_Courses_tmp
240003aa.007.2013|ST1087|instructor|Y|1415_Courses_tmp
280057aa.001.2013|ST105759|instructor|Y|1415_Courses_tmp
230051.003.2013|ST105766|instructor|Y|1415_Courses_tmp
200013aa.004.2013|ST105780|instructor|Y|1415_Courses_tmp
420051.001.2013|ST1213|instructor|Y|1415_Courses_tmp
420009.002.2013|ST1213|instructor|Y|1415_Courses_tmp
230016aa.002.2013|ST105773|instructor|Y|1415_Courses_tmp
200005aa.002.2013|ST1175|instructor|Y|1415_Courses_tmp
700005.003.2013|ST105753|instructor|Y|1415_Courses_tmp
200020.001.2013|ST105780|instructor|Y|1415_Courses_tmp
230053aa.002.2013|ST105766|instructor|Y|1415_Courses_tmp
210009.002.2013|ST1214|instructor|Y|1415_Courses_tmp
270153.003.2013|ST1210|instructor|Y|1415_Courses_tmp
550011.001.2013|ST105760|instructor|Y|1415_Courses_tmp
200009aa.002.2013|ST1218|instructor|Y|1415_Courses_tmp
270154.005.2013|ST1210|instructor|Y|1415_Courses_tmp
240003aa.002.2013|ST1085|instructor|Y|1415_Courses_tmp
240003aa.006.2013|ST1087|instructor|Y|1415_Courses_tmp
250002.005.2013|ST1158|instructor|Y|1415_Courses_tmp
400031.001.2013|ST105762|instructor|Y|1415_Courses_tmp
200017.004.2013|ST105785|instructor|Y|1415_Courses_tmp
210007ab.001.2013|ST1156|instructor|Y|1415_Courses_tmp
230018aa.001.2013|ST105773|instructor|Y|1415_Courses_tmp
210017aa.001.2013|ST105811|instructor|Y|1415_Courses_tmp
510004.003.2013|ST105756|instructor|Y|1415_Courses_tmp
210009.001.2013|ST1214|instructor|Y|1415_Courses_tmp
230016aa.004.2013|ST105773|instructor|Y|1415_Courses_tmp
220013aa.001.2013|ST105758|instructor|Y|1415_Courses_tmp
250002.010.2013|ST1210|instructor|Y|1415_Courses_tmp
250002.001.2013|ST105816|instructor|Y|1415_Courses_tmp
200013aa.003.2013|ST105780|instructor|Y|1415_Courses_tmp
220081ab.002.2013|ST105816|instructor|Y|1415_Courses_tmp
220011aa.004.2013|ST105816|instructor|Y|1415_Courses_tmp
210017aa.002.2013|ST105811|instructor|Y|1415_Courses_tmp
600053aa.001.2013|ST105779|instructor|Y|1415_Courses_tmp
250002.004.2013|ST105816|instructor|Y|1415_Courses_tmp
802206af.014.2013|ST105774|instructor|Y|1415_Courses_tmp
600479aa.001.2013|ST105788|instructor|Y|1415_Courses_tmp
230022aa.001.2013|ST105772|instructor|Y|1415_Courses_tmp
240003ab.001.2013|ST1085|instructor|Y|1415_Courses_tmp
400022.001.2013|ST105756|instructor|Y|1415_Courses_tmp
220028.002.2013|ST1151|instructor|Y|1415_Courses_tmp
280057ab.001.2013|ST105759|instructor|Y|1415_Courses_tmp
210012ab.001.2013|ST105778|instructor|Y|1415_Courses_tmp
280051aa.001.2013|ST105808|instructor|Y|1415_Courses_tmp
250002.003.2013|ST105816|instructor|Y|1415_Courses_tmp
220081ab.001.2013|ST105816|instructor|Y|1415_Courses_tmp
210008.003.2013|ST1214|instructor|Y|1415_Courses_tmp
460009.001.2013|ST105831|instructor|Y|1415_Courses_tmp
240003aa.004.2013|ST1087|instructor|Y|1415_Courses_tmp
270154.001.2013|ST1210|instructor|Y|1415_Courses_tmp
230201.001.2013|ST105766|instructor|Y|1415_Courses_tmp
210007ab.002.2013|ST1156|instructor|Y|1415_Courses_tmp
400026.008.2013|ST105760|instructor|Y|1415_Courses_tmp
802206ae.005.2013|ST105774|instructor|Y|1415_Courses_tmp
200019.006.2013|ST105822|instructor|Y|1415_Courses_tmp
220073.002.2013|ST1217|instructor|Y|1415_Courses_tmp
200019.005.2013|ST105822|instructor|Y|1415_Courses_tmp
220073.001.2013|ST1217|instructor|Y|1415_Courses_tmp
210020aa.002.2013|ST1216|instructor|Y|1415_Courses_tmp
200017.002.2013|ST105785|instructor|Y|1415_Courses_tmp
220062aa.001.2013|ST105751|instructor|Y|1415_Courses_tmp
802206aa.004.2013|ST105751|instructor|Y|1415_Courses_tmp
200007aa.001.2013|ST1175|instructor|Y|1415_Courses_tmp
240003aj.002.2013|ST1085|instructor|Y|1415_Courses_tmp
510041.001.2013|ST105756|instructor|Y|1415_Courses_tmp
230015aa.001.2013|ST1212|instructor|Y|1415_Courses_tmp
600062ab.001.2013|ST105779|instructor|Y|1415_Courses_tmp
200019.003.2013|ST105822|instructor|Y|1415_Courses_tmp
240003ac.001.2013|ST1158|instructor|Y|1415_Courses_tmp
400026.004.2013|ST105760|instructor|Y|1415_Courses_tmp
280051ab.001.2013|ST105808|instructor|Y|1415_Courses_tmp
230043aa.002.2013|ST105766|instructor|Y|1415_Courses_tmp
802206ag.007.2013|ST105771|instructor|Y|1415_Courses_tmp
200009aa.001.2013|ST1218|instructor|Y|1415_Courses_tmp
230019aa.005.2013|ST105772|instructor|Y|1415_Courses_tmp
802206ac.014.2013|ST1153|instructor|Y|1415_Courses_tmp
250002.015.2013|ST1085|instructor|Y|1415_Courses_tmp
220028.001.2013|ST1151|instructor|Y|1415_Courses_tmp
230016aa.003.2013|ST105773|instructor|Y|1415_Courses_tmp
220011aa.001.2013|ST105758|instructor|Y|1415_Courses_tmp
280031aa.001.2013|ST105769|instructor|Y|1415_Courses_tmp
210020aa.001.2013|ST1216|instructor|Y|1415_Courses_tmp
802202aa.001.2013|ST105780|instructor|Y|1415_Courses_tmp
230019aa.001.2013|ST105772|instructor|Y|1415_Courses_tmp
802206ab.007.2013|ST105771|instructor|Y|1415_Courses_tmp
600002.001.2013|ST105788|instructor|Y|1415_Courses_tmp
802206ab.012.2013|ST105771|instructor|Y|1415_Courses_tmp
230015aa.002.2013|ST1212|instructor|Y|1415_Courses_tmp
230041aa.002.2013|ST105766|instructor|Y|1415_Courses_tmp
510004.001.2013|ST105756|instructor|Y|1415_Courses_tmp
230019aa.004.2013|ST105772|instructor|Y|1415_Courses_tmp
802206ag.005.2013|ST105771|instructor|Y|1415_Courses_tmp
280051ad.001.2013|ST105808|instructor|Y|1415_Courses_tmp
210016.003.2013|ST1156|instructor|Y|1415_Courses_tmp
700007.003.2013|ST105753|instructor|Y|1415_Courses_tmp
510004.002.2013|ST105756|instructor|Y|1415_Courses_tmp
280033aa.001.2013|ST105769|instructor|Y|1415_Courses_tmp
200019.002.2013|ST105822|instructor|Y|1415_Courses_tmp
270153.001.2013|ST1210|instructor|Y|1415_Courses_tmp
210012aa.002.2013|ST1216|instructor|Y|1415_Courses_tmp
200007aa.002.2013|ST1175|instructor|Y|1415_Courses_tmp
210010aa.001.2013|ST105778|instructor|Y|1415_Courses_tmp
240003aj.001.2013|ST1085|instructor|Y|1415_Courses_tmp
220014.001.2013|ST105758|instructor|Y|1415_Courses_tmp
210015.003.2013|ST105778|instructor|Y|1415_Courses_tmp
240003aj.007.2013|ST1085|instructor|Y|1415_Courses_tmp
700041.002.2013|ST105788|instructor|Y|1415_Courses_tmp
220062aa.002.2013|ST105751|instructor|Y|1415_Courses_tmp
270154.003.2013|ST1210|instructor|Y|1415_Courses_tmp
220081ab.003.2013|ST105816|instructor|Y|1415_Courses_tmp
210008.001.2013|ST1156|instructor|Y|1415_Courses_tmp
400026.007.2013|ST105760|instructor|Y|1415_Courses_tmp
230043aa.001.2013|ST105766|instructor|Y|1415_Courses_tmp
210012aa.001.2013|ST1216|instructor|Y|1415_Courses_tmp
460013.001.2013|ST105831|instructor|Y|1415_Courses_tmp
210016.002.2013|ST1156|instructor|Y|1415_Courses_tmp
802206ag.004.2013|ST105771|instructor|Y|1415_Courses_tmp
240003aj.014.2013|ST1087|instructor|Y|1415_Courses_tmp
280051ac.001.2013|ST105759|instructor|Y|1415_Courses_tmp
200019.001.2013|ST105822|instructor|Y|1415_Courses_tmp
802206ae.007.2013|ST105774|instructor|Y|1415_Courses_tmp
200011aa.002.2013|ST1218|instructor|Y|1415_Courses_tmp
700016.001.2013|ST105779|instructor|Y|1415_Courses_tmp
270153.002.2013|ST1210|instructor|Y|1415_Courses_tmp
700007.001.2013|ST105753|instructor|Y|1415_Courses_tmp
210009.003.2013|ST1214|instructor|Y|1415_Courses_tmp
220011aa.003.2013|ST105758|instructor|Y|1415_Courses_tmp
400031.002.2013|ST105762|instructor|Y|1415_Courses_tmp
510043.001.2013|ST105756|instructor|Y|1415_Courses_tmp
280056aa.003.2013|ST105808|instructor|Y|1415_Courses_tmp
220011aa.002.2013|ST105758|instructor|Y|1415_Courses_tmp
802206ae.002.2013|ST105774|instructor|Y|1415_Courses_tmp
240003ac.002.2013|ST1087|instructor|Y|1415_Courses_tmp
470011.001.2013|ST105762|instructor|Y|1415_Courses_tmp
200019.004.2013|ST105822|instructor|Y|1415_Courses_tmp
802206aa.003.2013|ST105751|instructor|Y|1415_Courses_tmp
240003ae.003.2013|ST1087|instructor|Y|1415_Courses_tmp
802206ab.011.2013|ST105771|instructor|Y|1415_Courses_tmp
420009.001.2013|ST1213|instructor|Y|1415_Courses_tmp
220064.001.2013|ST105751|instructor|Y|1415_Courses_tmp
250002.009.2013|ST1210|instructor|Y|1415_Courses_tmp
410002.001.2013|ST105746|instructor|Y|1415_Courses_tmp
802206ac.012.2013|ST1153|instructor|Y|1415_Courses_tmp
230019aa.002.2013|ST105772|instructor|Y|1415_Courses_tmp
600054aa.002.2013|ST105779|instructor|Y|1415_Courses_tmp
802206ab.008.2013|ST105771|instructor|Y|1415_Courses_tmp
802206ac.008.2013|ST1153|instructor|Y|1415_Courses_tmp
240003aa.001.2013|ST1085|instructor|Y|1415_Courses_tmp
802206ac.005.2013|ST1153|instructor|Y|1415_Courses_tmp
510066.001.2013|ST1188|instructor|Y|1415_Courses_tmp
802206af.022.2013|ST1085|instructor|Y|1415_Courses_tmp
802206ae.014.2013|ST1087|instructor|Y|1415_Courses_tmp
802206ae.012.2013|ST105773|instructor|Y|1415_Courses_tmp
240003ae.004.2013|ST1087|instructor|Y|1415_Courses_tmp
280055aa.002.2013|ST105808|instructor|Y|1415_Courses_tmp
802206ab.013.2013|ST105771|instructor|Y|1415_Courses_tmp
802206ae.013.2013|ST105785|instructor|Y|1415_Courses_tmp
410001.001.2013|ST105746|instructor|Y|1415_Courses_tmp
802206af.009.2013|ST105774|instructor|Y|1415_Courses_tmp
250002.017.2013|ST1158|instructor|Y|1415_Courses_tmp
802206ah.007.2013|ST1153|instructor|Y|1415_Courses_tmp
240003aj.006.2013|ST1085|instructor|Y|1415_Courses_tmp
802206ag.003.2013|ST105771|instructor|Y|1415_Courses_tmp
240003ak.001.2013|ST1085|instructor|Y|1415_Courses_tmp
600499aa.001.2013|ST105753|instructor|Y|1415_Courses_tmp
240003aj.004.2013|ST1085|instructor|Y|1415_Courses_tmp
802206ag.001.2013|ST105771|instructor|Y|1415_Courses_tmp
802206ab.001.2013|ST105771|instructor|Y|1415_Courses_tmp
802206ac.009.2013|ST1153|instructor|Y|1415_Courses_tmp
802206ab.010.2013|ST105771|instructor|Y|1415_Courses_tmp
270153.006.2013|ST1210|instructor|Y|1415_Courses_tmp
802206af.012.2013|ST105774|instructor|Y|1415_Courses_tmp
802206ab.002.2013|ST105771|instructor|Y|1415_Courses_tmp
240003aj.010.2013|ST1087|instructor|Y|1415_Courses_tmp
600206.002.2013|ST1157|instructor|Y|1415_Courses_tmp
270154.006.2013|ST1085|instructor|Y|1415_Courses_tmp
600512aa.001.2013|ST105753|instructor|Y|1415_Courses_tmp
700005.001.2013|ST105753|instructor|Y|1415_Courses_tmp
430010.001.2013|ST105821|instructor|Y|1415_Courses_tmp
230074.001.2013|ST105822|instructor|Y|1415_Courses_tmp
802206ae.004.2013|ST105774|instructor|Y|1415_Courses_tmp
802206ab.009.2013|ST105771|instructor|Y|1415_Courses_tmp
600206.003.2013|ST105753|instructor|Y|1415_Courses_tmp
802206aa.005.2013|ST105751|instructor|Y|1415_Courses_tmp
802206ac.010.2013|ST1153|instructor|Y|1415_Courses_tmp
802206ae.003.2013|ST105774|instructor|Y|1415_Courses_tmp
240003ae.002.2013|ST1158|instructor|Y|1415_Courses_tmp
802206ac.001.2013|ST1153|instructor|Y|1415_Courses_tmp
802206ae.009.2013|ST105785|instructor|Y|1415_Courses_tmp
802206ah.002.2013|ST1153|instructor|Y|1415_Courses_tmp
510060.001.2013|ST1188|instructor|Y|1415_Courses_tmp
700007.002.2013|ST105753|instructor|Y|1415_Courses_tmp
802206af.011.2013|ST105774|instructor|Y|1415_Courses_tmp
280034aa.002.2013|ST105769|instructor|Y|1415_Courses_tmp
230053aa.003.2013|ST105766|instructor|Y|1415_Courses_tmp
700008.002.2013|ST105753|instructor|Y|1415_Courses_tmp
410005.001.2013|ST105821|instructor|Y|1415_Courses_tmp
200013aa.005.2013|ST105808|instructor|Y|1415_Courses_tmp
802206ac.011.2013|ST1153|instructor|Y|1415_Courses_tmp
802206af.008.2013|ST105774|instructor|Y|1415_Courses_tmp
802206aa.006.2013|ST105751|instructor|Y|1415_Courses_tmp
802206af.019.2013|ST105816|instructor|Y|1415_Courses_tmp
802206ab.003.2013|ST105771|instructor|Y|1415_Courses_tmp
240003aj.005.2013|ST1085|instructor|Y|1415_Courses_tmp
600419aa.001.2013|ST105753|instructor|Y|1415_Courses_tmp
600479ab.001.2013|ST105779|instructor|Y|1415_Courses_tmp
600459aa.001.2013|ST105779|instructor|Y|1415_Courses_tmp
240003ak.002.2013|ST1085|instructor|Y|1415_Courses_tmp
430071.001.2013|ST105823|instructor|Y|1415_Courses_tmp
802206af.010.2013|ST105774|instructor|Y|1415_Courses_tmp
430070.001.2013|ST105823|instructor|Y|1415_Courses_tmp
802206af.021.2013|ST1212|instructor|Y|1415_Courses_tmp
200019.007.2013|ST105822|instructor|Y|1415_Courses_tmp
220051aa.006.2013|ST105822|instructor|Y|1415_Courses_tmp
802206ae.010.2013|ST105780|instructor|Y|1415_Courses_tmp
802206ae.001.2013|ST105774|instructor|Y|1415_Courses_tmp
802206ah.001.2013|ST1153|instructor|Y|1415_Courses_tmp
802206ae.011.2013|ST1156|instructor|Y|1415_Courses_tmp
240003aj.013.2013|ST1087|instructor|Y|1415_Courses_tmp
240003.002.2013|ST1158|instructor|Y|1415_Courses_tmp
802206ah.005.2013|ST1153|instructor|Y|1415_Courses_tmp
600512aa.002.2013|ST105753|instructor|Y|1415_Courses_tmp
802206aa.001.2013|ST105751|instructor|Y|1415_Courses_tmp
802206ah.004.2013|ST1153|instructor|Y|1415_Courses_tmp
240003.003.2013|ST1151|instructor|Y|1415_Courses_tmp
802206ah.006.2013|ST1153|instructor|Y|1415_Courses_tmp
430021.001.2013|ST105749|instructor|Y|1415_Courses_tmp
700006.002.2013|ST105753|instructor|Y|1415_Courses_tmp
802206aa.007.2013|ST105751|instructor|Y|1415_Courses_tmp
700006.003.2013|ST105753|instructor|Y|1415_Courses_tmp
802206ag.006.2013|ST105771|instructor|Y|1415_Courses_tmp
802206af.016.2013|ST1156|instructor|Y|1415_Courses_tmp
802206ae.015.2013|ST105766|instructor|Y|1415_Courses_tmp
700005.002.2013|ST105753|instructor|Y|1415_Courses_tmp
230022aa.004.2013|ST1210|instructor|Y|1415_Courses_tmp
270153.004.2013|ST1085|instructor|Y|1415_Courses_tmp
802206af.007.2013|ST105774|instructor|Y|1415_Courses_tmp
802206ac.004.2013|ST1153|instructor|Y|1415_Courses_tmp
802206af.003.2013|ST105774|instructor|Y|1415_Courses_tmp
600206.005.2013|ST105779|instructor|Y|1415_Courses_tmp
802206ab.014.2013|ST105771|instructor|Y|1415_Courses_tmp
802206ae.008.2013|ST105811|instructor|Y|1415_Courses_tmp
802206aa.002.2013|ST105751|instructor|Y|1415_Courses_tmp
240003aj.012.2013|ST1087|instructor|Y|1415_Courses_tmp
220062.003.2013|ST1085|instructor|Y|1415_Courses_tmp